[
  {
    "keypoints": [
      [
        -0.0,
        0.0,
        0.4294116199016571
      ],
      [
        -0.020518921315670013,
        0.0021150363609194756,
        0.3804592192173004
      ],
      [
        0.03645568713545799,
        0.057179417461156845,
        0.19008618593215942
      ],
      [
        0.10794329643249512,
        0.11413147300481796,
        0.0
      ],
      [
        -0.04628942906856537,
        0.0187497790902853,
        0.41166162490844727
      ],
      [
        0.003377014072611928,
        0.0789523795247078,
        0.23980028927326202
      ],
      [
        0.057525329291820526,
        0.14873406291007996,
        0.08397436141967773
      ],
      [
        -0.08480066061019897,
        -0.01428341493010521,
        0.5430456399917603
      ],
      [
        -0.1428738385438919,
        -0.07099127024412155,
        0.7675509452819824
      ],
      [
        -0.16040478646755219,
        -0.10399999469518661,
        0.8942813873291016
      ],
      [
        -0.16075879335403442,
        -0.10711732506752014,
        0.9294697046279907
      ],
      [
        -0.16167877614498138,
        -0.047495994716882706,
        0.7915245294570923
      ],
      [
        -0.12198296934366226,
        -0.01245006825774908,
        0.5554717779159546
      ],
      [
        -0.16371454298496246,
        -0.058339450508356094,
        0.6895647644996643
      ],
      [
        -0.12467309832572937,
        -0.10263222455978394,
        0.7621543407440186
      ],
      [
        -0.054400939494371414,
        -0.10595481842756271,
        0.5133857727050781
      ],
      [
        -0.0852130725979805,
        -0.07826210558414459,
        0.47365355491638184
      ]
    ],
    "keypoint_scores": [
      1.0,
      1.0,
      1.0,
      1.0,
      1.0,
      1.0,
      1.0,
      1.0,
      1.0,
      1.0,
      1.0,
      1.0,
      1.0,
      1.0,
      1.0,
      1.0,
      1.0
    ]
  }
]